<?xml version="1.0"?>
<VTKFile type="UnstructuredGrid"  version="0.1"  >
<UnstructuredGrid>
<Piece  NumberOfPoints="6" NumberOfCells="4">
<Points>
<DataArray  type="Float64"  NumberOfComponents="3"  format="ascii">0.3446047392512991 0.4742455538253011 0  0.3669624072071971 0.4523646862342492 0  0.4063293998333092 0.492589514883952 0  0.3839717318774111 0.514470382475004 0  0.3866459035202531 0.4724771005591006 0  0.3642882355643551 0.4943579681501525 0  </DataArray>
</Points>
<Cells>
<DataArray  type="UInt32"  Name="connectivity"  format="ascii">0 4 5  0 1 4  2 4 5  2 3 5  </DataArray>
<DataArray  type="UInt32"  Name="offsets"  format="ascii">3 6 9 12 </DataArray>
<DataArray  type="UInt8"  Name="types"  format="ascii">5 5 5 5 </DataArray>
</Cells>
</Piece>
</UnstructuredGrid>
</VTKFile>