<?xml version="1.0"?>
<VTKFile type="UnstructuredGrid"  version="0.1"  >
<UnstructuredGrid>
<Piece  NumberOfPoints="23" NumberOfCells="27">
<Points>
<DataArray  type="Float64"  NumberOfComponents="3"  format="ascii">0.9159513426623019 0.4208303098759367 0  0.7108271596565542 0.5068062405698239 0  0.4222428147535284 0.5922317345676018 0  0.3628280109906046 0.5915781145445071 0  0.3147291546201326 0.5903798614163753 0  0.1934616117398477 0.5764972193437499 0  0.1295308478477252 0.5445639016102684 0  0.09431595109569563 0.4649119506547433 0  0.1139058220173482 0.3837517443622547 0  0.2550821820905491 0.2461426708299971 0  0.4063712493595511 0.1499864499966538 0  0.4866361952006654 0.1018386085539174 0  0.5777699104364199 0.05902220401686788 0  0.6858918170627095 0.05383924859705471 0  0.7789885530120434 0.1140636784383241 0  0.8055086528251673 0.1997756839191651 0  0.3433335899610071 0.4081372913456866 0  0.5647948316940594 0.3231099363882991 0  0.3410166843990081 0.5011397673953645 0  0.6584576770407022 0.1983158506939399 0  0.2113130988761148 0.4607967801749431 0  0.5665349872050414 0.5495189875687129 0  0.4682668883699929 0.4577797648737418 0  </DataArray>
</Points>
<Cells>
<DataArray  type="UInt32"  Name="connectivity"  format="ascii">4 18 20  5 6 20  4 5 20  16 18 20  2 21 22  2 18 22  9 10 16  11 12 19  1 17 19  12 13 19  1 15 19  0 1 15  11 17 19  8 9 20  9 16 20  10 16 17  10 11 17  2 3 18  3 4 18  13 14 19  14 15 19  6 7 20  7 8 20  17 21 22  1 17 21  16 18 22  16 17 22  </DataArray>
<DataArray  type="UInt32"  Name="offsets"  format="ascii">3 6 9 12 15 18 21 24 27 30 33 36 39 42 45 48 51 54 57 60 63 66 69 72 75 78 81 </DataArray>
<DataArray  type="UInt8"  Name="types"  format="ascii">5 5 5 5 5 5 5 5 5 5 5 5 5 5 5 5 5 5 5 5 5 5 5 5 5 5 5 </DataArray>
</Cells>
</Piece>
</UnstructuredGrid>
</VTKFile>