<?xml version="1.0"?>
<VTKFile type="UnstructuredGrid"  version="0.1"  >
<UnstructuredGrid>
<Piece  NumberOfPoints="390" NumberOfCells="682">
<Points>
<DataArray  type="Float64"  NumberOfComponents="3"  format="ascii">0.6341775425154991 0.273258167140259 0  0.7085574972228008 0.1952757272190245 0  0.804630524784556 0.286910554827065 0  0.7302505700772541 0.3648929947482995 0  0.6882443679921709 0.2719798009146634 0  0.7289722038516585 0.3108261692716277 0  0.7505636993078841 0.2881889210526606 0  0.7098358634483966 0.2493425526956964 0  0.7565940110036784 0.2410931410230447 0  0.6822140562963767 0.3190755809442792 0  0.67136751986915 0.2342669471796418 0  0.7674405474309051 0.3259017747876822 0  0.6581957994059379 0.2961668740422692 0  0.7325757541132396 0.2181844341210346 0  0.7062323131868155 0.3419842878462894 0  0.7806122678941172 0.2640018479250549 0  0.7086082859219147 0.2914029850931456 0  0.7301997813781403 0.2687657368741785 0  0.7488455587540797 0.3453973847679909 0  0.6527725311923245 0.2537625571599504 0  0.6899625085459754 0.2147713371993331 0  0.7860355361077305 0.3064061648073736 0  0.7332149372260375 0.2452178468593705 0  0.7566885009723933 0.2650392011823093 0  0.6852292121442738 0.2955276909294713 0  0.7061378232181006 0.3180382276870247 0  0.7738909024523718 0.2864104327485249 0  0.7105098751007919 0.2259573621793765 0  0.6461866709607185 0.2847125205912641 0  0.6654893001786895 0.2726442518066561 0  0.7282981921992632 0.3342113597879475 0  0.7635766535103672 0.3049982037033527 0  0.6924303470109022 0.2371385796602091 0  0.6763516612180278 0.254669197259702 0  0.7463777202891528 0.3230301423071149 0  0.7397679515797713 0.2995075451621441 0  0.6990401157202837 0.2606611768051799 0  0.7926213963393366 0.2754562013760599 0  0.6942231847415961 0.3305299343952843 0  0.6702049278511573 0.3076212274932742 0  0.744584882558459 0.2296387875720397 0  0.7686031394488978 0.2525474944740498 0  0.7205666256680202 0.2067300806700296 0  0.7182414416320348 0.3534386412972944 0  0.6434750368539118 0.2635103621501047 0  0.7953330304461432 0.2966583598172193 0  0.6992600028843882 0.2050235322091788 0  0.7395480644156669 0.3551451897581451 0  0.6937435448539874 0.3085848771289815 0  0.7466599364197951 0.2531055568958916 0  0.6715128705969924 0.2874039740520664 0  0.7198757021489437 0.2379296140182255 0  0.7187902448867867 0.3011145771823866 0  0.6984263269570429 0.2816913930039044 0  0.7403817403430122 0.2784773289634195 0  0.7200178224132684 0.2590541447849374 0  0.7200307630998836 0.3222707661481593 0  0.7690064862182768 0.2727330558641976 0  0.7581430530924923 0.3356495797778365 0  0.6620700255307372 0.2440147521697961 0  0.6806650142075628 0.2245191421894875 0  0.7767380417693178 0.3161539697975279 0  0.7063028165920614 0.3049701668426942 0  0.7436428412114253 0.2658216322947011 0  0.7314322731478786 0.2314058612345448 0  0.7500448831576663 0.3093097224993233 0  0.6588358238050133 0.2834732876835404 0  0.6514504255056431 0.2732648362399714 0  0.6975158738589068 0.2483995238303993 0  0.7158266803035374 0.3340139877055349 0  0.7618981476768333 0.2829824015937735 0  0.7597908147046148 0.3165068860585615 0  0.6809397134304807 0.2427384427377658 0  0.7805885403885029 0.276049287944261 0  0.7871558680860002 0.2869296914240275 0  0.7367437099312465 0.3431624898981022 0  0.7093348498758887 0.2130990582853793 0  0.6969187490330943 0.2934653380113084 0  0.68320637646534 0.2833016991691085 0  0.734750475544573 0.2573814433272062 0  0.6645070641387373 0.2556471047173028 0  0.7444462674838195 0.2414761728305502 0  0.6820225339601089 0.3069233093383389 0  0.6881926931530163 0.2557840506933185 0  0.6975758351528383 0.2252511011290995 0  0.7752076623006862 0.2992966400085477 0  0.7204258993767414 0.2189001861413707 0  0.7322775338688251 0.3226237445084049 0  0.7079790863539314 0.2375867278799101 0  0.6769078640534367 0.2737171560935321 0  0.7469549488064506 0.3342862180034658 0  0.7601811494847954 0.2941851936807749 0  0.752035545043103 0.2764524388707159 0  0.7576624028592375 0.2540401449627691 0  0.6882186205189863 0.3248027576697818 0  0.6580980958268334 0.264544422441713 0  0.7054955808345348 0.3293536220316226 0  0.7219199046600706 0.3431189344856281 0  0.7291183491062277 0.3515002705833231 0  0.739785598697153 0.3139179294971956 0  0.7183647897458191 0.311753988359496 0  0.7451658254438277 0.2938482331074023 0  0.7227758109735268 0.2484728463090884 0  0.681229081561747 0.2640588759754283 0  0.6642003636285476 0.3018940507677716 0  0.6746446913141434 0.2977575202576955 0  0.7746077036715074 0.2582746711995523 0  0.7855194448283238 0.2966060192982745 0  0.6997208248715812 0.2147709616522545 0  0.7560299543076345 0.3258254240765348 0  0.6960451478819508 0.3184189859232257 0  0.7662940707485006 0.2633681029980983 0  0.719719298677177 0.2284024240740632 0  0.6667187726999436 0.2391408496747189 0  0.737639837358425 0.3309423182089038 0  0.670879670029695 0.2638057971439866 0  0.6724662388342949 0.2463274713559077 0  0.6835895623045212 0.2335867688274252 0  0.7550813822430962 0.3017262573343209 0  0.7145620614454106 0.2010029039445271 0  0.6887638397181775 0.246927482586864 0  0.7986259605619462 0.2811833781015625 0  0.7601994813753521 0.2731256387304654 0  0.6401821067381088 0.2789853438657616 0  0.6388262896847055 0.2683842646451819 0  0.7681928614988242 0.3128937549959919 0  0.6900083788211921 0.2884566213656808 0  0.7813867889385241 0.3112800673024507 0  0.685313761376769 0.2196452396944103 0  0.72657118989063 0.2124572573955321 0  0.7505894467810688 0.2353659642975422 0  0.7866168321167268 0.2697290246505574 0  0.7385803183358494 0.2239116108465372 0  0.6521912351833282 0.2904396973167666 0  0.6762094920737669 0.3133484042187767 0  0.762598575226288 0.2468203177485473 0  0.7002277489642057 0.3362571111207868 0  0.7122368774094251 0.3477114645717919 0  0.7242460058546445 0.359165818022797 0  0.7386758716098833 0.235489097623002 0  0.7269968758474066 0.2243620955800987 0  0.6892671207366687 0.2272115493895586 0  0.6661828039129087 0.293804312210741 0  0.6936422418562274 0.2663204888599217 0  0.7119001898456997 0.3240412131982474 0  0.7037711035906133 0.2305809257870547 0  0.6666144572731649 0.2807940621948656 0  0.6787216537920301 0.2908738473446621 0  0.7673041962091856 0.2978880463330352 0  0.7039087500535945 0.2001496297141017 0  0.7999817776153496 0.2917844573221421 0  0.7665422808935378 0.2894271596901465 0  0.7044379895843401 0.2550018647504381 0  0.7343700777157149 0.3051668572168859 0  0.7506787575048044 0.2463151894181218 0  0.701365935027543 0.311442907273254 0  0.7516955426130008 0.2590544592593518 0  0.6921063195935169 0.3003478722920719 0  0.7390591459656339 0.2506587928981389 0  0.6889466747322756 0.3148939416545717 0  0.7001158318449492 0.2404465601844435 0  0.7055696804745658 0.2199259696261775 0  0.7472279447947571 0.3019746665913217 0  0.778916949780853 0.2924072321283596 0  0.6933353474746069 0.2768355969592839 0  0.7742157269003758 0.3073929349943557 0  0.7160203835315889 0.2446605700241964 0  0.7280243513463104 0.2388667435170737 0  0.6998600813496634 0.3006457354977927 0  0.7270455860126396 0.2552358329163411 0  0.7527513829507596 0.3190840382590842 0  0.7136413512120462 0.2327288943222519 0  0.7293291729831587 0.3440372835547179 0  0.675913998632675 0.2812320929460996 0  0.6481237840231182 0.2586364596550276 0  0.6506632834514103 0.2657707847946626 0  0.6826718796725229 0.2509813216162552 0  0.7260242722993068 0.3269533782121765 0  0.7735266606443785 0.2788296683615595 0  0.7733327890257918 0.2664047271003609 0  0.7241010797131825 0.3162356400446993 0  0.7012880495698017 0.3234388863099423 0  0.7530738732621932 0.2948737144590069 0  0.757289701968105 0.3086571039334557 0  0.7132348546521275 0.3406538700958235 0  0.7392941539933856 0.3239883098043516 0  0.7431750262806436 0.3077395735847356 0  0.7149268429308324 0.2541983487403169 0  0.7238812243692226 0.3059703732270071 0  0.7035173064394789 0.286547189048525 0  0.7352907608605762 0.273621532918799 0  0.7136992654043507 0.296258781137766 0  0.7454727198254482 0.28333312500804 0  0.7251088018957044 0.2639099408295579 0  0.658413470730653 0.2716788404387857 0  0.7088249267770784 0.2057011846542056 0  0.7464545825772126 0.3160339349569293 0  0.7132978724611637 0.3169323651627234 0  0.708799101682179 0.3115367561816858 0  0.7134617242599597 0.3060064876136217 0  0.7363349956533488 0.264616511937812 0  0.7063136124479112 0.2979925264630561 0  0.7933005516404782 0.2900658258028185 0  0.70862946558895 0.3355076453898519 0  0.7503872824345553 0.2691253952861943 0  0.7456149262039178 0.2740478806749708 0  0.6454144271445531 0.2701104661555838 0  0.7406141185732333 0.3373033708347892 0  0.6946112557151818 0.209897434704256 0  0.7720892946001114 0.321027872292605 0  0.7627918002616987 0.3307756772827594 0  0.7534943059232859 0.3405234822729137 0  0.6574212783615309 0.2488886546648733 0  0.7441968115848733 0.350271287263068 0  0.7348993172464605 0.3600190922532223 0  0.7906842832769369 0.3015322623122964 0  0.6760162670383564 0.2293930446845646 0  0.7245607403504251 0.2330878231387017 0  0.7805522763950895 0.2859320103014777 0  0.7038893802562242 0.2460816637086425 0  0.7656544695466959 0.3195442589311672 0  0.6970794686112534 0.2320935991959983 0  0.7451741108382107 0.2594689857638262 0  0.6644824206553702 0.2872356112947661 0  0.694841838381886 0.219231949639946 0  0.7813518977278231 0.3017391508188704 0  0.7124941278934067 0.2192931956263771 0  0.7165697564048661 0.2127697301308556 0  0.7038024681897862 0.2097638852435461 0  0.7722099549044183 0.2932394088915972 0  0.7919477012952696 0.2821738075154914 0  0.7855233541109367 0.2804928683439213 0  0.6643813005472009 0.2623134457113275 0  0.6864036018477639 0.2393610345236373 0  0.6747977193012451 0.2400347635032435 0  0.6585158116054756 0.2898200808629048 0  0.6525112473828658 0.2840929041374023 0  0.7636587435599324 0.2571490595012559 0  0.7340930628958446 0.3372036151180501 0  0.6459627057873286 0.2764135485146807 0  0.6873402228481589 0.2657135111798418 0  0.6561150240660522 0.2776659323740023 0  0.6709293761951627 0.2760457731280838 0  0.7220253345825726 0.3364570473708123 0  0.7684153364238423 0.2828743908727532 0  0.7648025856324828 0.2774071136097019 0  0.7197577748695753 0.3287971794373041 0  0.7549409041002515 0.282777324907644 0  0.7582639326438828 0.2881583769735405 0  0.7500286506998324 0.3284857555181895 0  0.743657847945463 0.3288244450110976 0  0.6831338177616592 0.2764875662600563 0  0.6821688403557667 0.2702751535338636 0  0.6982779947895953 0.2545303503177896 0  0.6938800485317546 0.2432626866990868 0  0.7381458871734566 0.3491538398281237 0  0.7430132572780269 0.3430961045950397 0  0.7318979183288937 0.3287560574665776 0  0.7322313355812164 0.2515207389931686 0  0.6702062584201229 0.2524558707009151 0  0.7333528481203824 0.3159606581630506 0  0.6943743601109851 0.3243601554130294 0  0.6709727256948952 0.2699255081674485 0  0.6822783199538215 0.3129969231166663 0  0.6924437206603513 0.2828670832917008 0  0.7785629878005957 0.2700215552309146 0  0.6859124184463633 0.3018689242088012 0  0.654190072013796 0.2597685609316668 0  0.6797817528531898 0.3011747594955211 0  0.7565779146760248 0.2480013478241463 0  0.7266218001975737 0.2184154775049224 0  0.7138985885938615 0.2387575984633712 0  0.7092187803192931 0.2434154710649863 0  0.6820416413339575 0.2576751811574128 0  0.6924754833934917 0.2516135410633514 0  0.6927764535605686 0.2600907840363457 0  0.6648143830567191 0.2495112573674412 0  0.6586397976655309 0.2547048309386266 0  0.7028815305558264 0.2931030665782567 0  0.6976725379950686 0.2875783655076065 0  0.6910751424798478 0.2945031001374209 0  0.7392472350753541 0.2445976104165908 0  0.744817752247863 0.2474308396707906 0  0.6761229213051431 0.3074278862638654 0  0.6877098926570316 0.3089755028894158 0  0.744671453327083 0.235559305526951 0  0.6759845269648607 0.2667887362494303 0  0.6761026674788503 0.2607269848020701 0  0.714632249275952 0.2069405983213625 0  0.7694882506995437 0.303565222022418 0  0.7627370519884464 0.3107863148513244 0  0.7308628408424753 0.2620239005112965 0  0.7166731638578234 0.223398517997391 0  0.7355780362245444 0.2210480224837859 0  0.7415826004471542 0.2267751992092884 0  0.6843970115818642 0.2898146295201884 0  0.7644271204365682 0.2689841178987442 0  0.761747241506872 0.3240716018866938 0  0.73927949453822 0.2695210160873679 0  0.7540702735462886 0.3134569669298457 0  0.6696698760469992 0.2581826358189771 0  0.7618976586602321 0.2995858085633064 0  0.699759066191608 0.3289804617766834 0  0.7114265333945905 0.3299870597464262 0  0.6881496666481433 0.2791506516626202 0  0.7525490009494714 0.3349678988906512 0  0.7479002537802651 0.3398418013857283 0  0.6690103128264135 0.2987849845763007 0  0.6780250811525431 0.2476543652309754 0  0.7340131599120105 0.2392688661727008 0  0.7365074367975164 0.2290905302219166 0  0.7523044926521389 0.2518855764045782 0  0.7339394033342871 0.3544495748086945 0  0.7212437237433397 0.3563022296600457 0  0.7231265612612077 0.3493644957534777 0  0.7585519847603897 0.259661556978565 0  0.7152391595207299 0.3505750529345432 0  0.7716054215602026 0.255411082836801 0  0.7585490775437953 0.278484812607193 0  0.6627605207564524 0.2677120982247477 0  0.661531837932361 0.2786691425086316 0  0.7535917288923736 0.2382295526602935 0  0.7234653389105319 0.2426126989162239 0  0.7204405660957777 0.2535142512586115 0  0.7277594136569928 0.2460885965782995 0  0.6796244220752189 0.2373981365813385 0  0.7009397503882517 0.3059987514943248 0  0.725437649693391 0.3215272237923117 0  0.7352204355153211 0.3106918300114875 0  0.7896191142280318 0.2725926130133086 0  0.6735256308347529 0.2924455805480688 0  0.6730146322713202 0.3029548595757651 0  0.7051239031850082 0.2253300012525002 0  0.7296963359976404 0.3580483531962675 0  0.7001492987212802 0.2204517033012131 0  0.7104613892215497 0.3014877724749236 0  0.7417543812487418 0.2553153172679937 0  0.7393766444490459 0.2601593303540758 0  0.7167639676801041 0.3447522599607303 0  0.7418228174309386 0.3190645294755612 0  0.8016282426732511 0.2840469664643137 0  0.6410080710933758 0.2734924675643577 0  0.6673478029290816 0.2448129731352476 0  0.7188298335898867 0.3170706634483119 0  0.7065717505735665 0.3241341619785741 0  0.7323646767859189 0.2254943167665193 0  0.7549589315817031 0.2719458903564191 0  0.726601716653637 0.3393564112366906 0  0.701316921850233 0.2352816042996026 0  0.748814234490169 0.2638006067643404 0  0.7115597793341057 0.1981393155817758 0  0.718673336426314 0.3065256754110013 0  0.6917829900734166 0.2318773658499563 0  0.765600857337593 0.2496839061112985 0  0.7958631486594495 0.285564583240975 0  0.6800121667710632 0.2959460417500623 0  0.7234837574540592 0.3111138737095943 0  0.650849582340819 0.2785741398555789 0  0.7329948618607136 0.3478753078845349 0  0.7883826969409859 0.2921137047219944 0  0.7758204881876315 0.2742973403210978 0  0.723980722304428 0.331578820255844 0  0.7088885821380488 0.2308169618366671 0  0.7010975731475029 0.3183899694207518 0  0.6939530222139441 0.3137222417309762 0  0.690981495651234 0.3202004912540788 0  0.7558712160074217 0.3309989007714887 0  0.7577026065181673 0.3210822981358314 0  0.6764860638826797 0.2862951772894055 0  0.6962181941624731 0.3041656699788881 0  0.7216099605782902 0.2138773829459789 0  0.7784526965520474 0.2809828783199031 0  0.7368204345981817 0.3196067009383813 0  0.6863145286878858 0.2606241289853981 0  0.7178756169853526 0.2492645726990864 0  0.7833040976644733 0.2900710996944399 0  0.6591833940850018 0.2596694646919123 0  0.7904265425910129 0.296575012248782 0  0.7515564691023123 0.3238331013783468 0  0.7046468490217621 0.2146193682772017 0  0.770005395804095 0.2600942443460472 0  0.7613965233408109 0.2636589516033475 0  0.654892476157597 0.2682603054680793 0  0.7176232105274482 0.3385410396219837 0  0.6901852541798926 0.2219158690154391 0  0.7490617506744887 0.2399732929756041 0  0.6904789132649902 0.3049525567762371 0  0.7293923430578464 0.318739809099377 0  0.7851038273082673 0.2743209504787848 0  0.780675859220088 0.2969319164347438 0  </DataArray>
</Points>
<Cells>
<DataArray  type="UInt32"  Name="connectivity"  format="ascii">7 219 272  86 226 227  30 238 257  67 206 239  26 163 218  97 172 347  145 221 348  69 243 246  6 192 247  15 106 179  51 112 217  88 271 272  50 146 173  50 146 223  66 146 320  14 137 184  114 207 250  109 249 378  72 176 308  36 152 253  91 148 301  65 118 162  33 176 308  179 265 360  9 94 365  25 144 344  89 173 251  79 200 337  22 167 324  23 122 346  93 269 311  98 312 333  29 262 319  20 208 224  98 172 314  9 159 365  168 326 369  81 281 282  105 307 330  51 167 217  48 155 326  77 157 168  77 157 280  78 173 251  92 247 318  22 258 324  17 200 291  100 197 343  106 317 380  211 305 306  71 183 299  116 234 342  113 234 342  31 183 290  71 183 290  25 181 363  157 168 369  63 204 349  23 315 381  11 209 220  34 170 378  12 104 142  19 174 267  33 116 259  83 120 274  32 160 348  97 243 383  107 225 389  70 247 318  71 125 220  10 113 234  117 216 325  74 202 230  74 230 231  107 359 377  85 163 229  30 177 257  90 207 250  42 227 370  78 126 264  78 147 295  79 169 258  102 323 374  44 174 175  22 158 281  130 321 385  147 330 355  115 262 286  84 145 332  161 334 379  85 163 389  85 225 389  86 112 140  27 112 292  185 339 372  5 188 356  64 167 217  187 323 374  115 262 319  103 240 252  91 118 182  118 162 182  63 205 298  23 204 346  111 237 380  38 261 302  110 181 261  29 146 242  67 194 382  110 364 365  75 172 358  97 172 314  87 177 257  5 260 328  25 144 197  100 197 198  35 101 162  101 162 182  102 322 324  22 167 309  103 240 373  103 273 373  105 330 355  104 142 307  82 263 284  82 266 268  237 315 381  45 150 202  46 149 195  90 249 305  34 249 378  159 364 365  25 197 198  111 237 381  92 204 346  51 112 171  27 112 171  116 259 342  259 276 342  114 207 238  114 238 257  115 232 319  115 287 300  33 116 308  72 120 176  84 224 384  84 224 334  31 148 301  65 183 299  119 195 350  32 233 352  120 254 274  202 230 354  37 121 230  23 122 296  57 245 296  95 194 382  28 123 239  67 175 206  123 239 341  61 125 165  61 127 165  53 164 264  24 157 280  21 215 225  21 127 225  60 117 141  60 128 141  13 129 270  86 227 370  8 321 385  40 130 285  37 230 231  15 179 265  64 167 309  13 140 270  66 241 320  12 142 235  82 263 283  9 159 263  93 237 315  8 154 269  96 181 302  14 184 203  137 184 338  43 313 314  214 312 333  40 294 310  132 310 345  32 221 348  32 221 352  50 142 223  66 146 223  143 240 275  36 143 275  56 197 343  56 144 197  84 145 221  108 224 334  89 173 242  146 173 242  24 266 268  78 147 368  91 148 151  125 165 289  76 195 228  46 195 228  2 150 340  70 247 248  26 178 244  68 152 253  7 166 272  65 162 186  99 260 328  49 154 311  154 269 311  110 181 363  48 284 364  63 200 298  49 156 222  82 266 284  24 157 266  49 158 282  158 281 282  159 263 284  159 284 364  68 160 219  32 233 254  76 161 379  27 226 292  35 153 186  35 162 186  26 151 229  26 163 229  78 264 304  4 240 252  85 148 289  85 165 289  166 271 272  51 166 271  167 322 324  51 167 322  168 201 278  62 168 201  55 169 193  34 170 196  71 170 299  88 171 362  27 171 362  97 243 347  75 207 238  78 173 368  50 173 368  95 175 267  174 175 267  44 124 206  44 175 206  83 120 176  103 286 287  69 243 383  56 177 246  122 245 296  57 178 245  73 265 360  57 179 360  56 177 327  56 180 327  25 181 344  96 181 344  6 101 182  6 247 248  65 118 183  31 118 183  69 246 303  69 184 203  34 185 339  34 196 339  99 196 339  5 153 328  102 166 374  55 187 323  100 351 356  100 198 199  77 168 278  53 189 279  222 336 337  63 204 205  62 198 199  16 201 278  92 204 205  92 192 247  17 193 291  79 200 291  194 241 320  67 194 241  76 195 288  76 226 227  99 186 196  65 186 196  52 199 351  100 199 351  25 155 198  62 155 198  16 191 201  191 201 335  17 190 298  17 200 298  62 199 335  62 201 335  202 359 377  74 202 359  14 136 203  96 136 203  23 156 349  23 204 349  92 192 205  54 192 205  206 239 341  124 206 341  18 256 306  75 207 256  108 334 379  108 208 224  125 209 220  61 125 209  109 249 366  11 220 297  90 305 306  58 211 305  80 259 276  19 212 277  75 255 358  18 211 306  98 138 333  47 214 312  107 215 225  45 202 377  60 117 216  10 216 325  112 140 217  64 140 217  26 218 371  73 231 371  7 152 219  68 152 219  71 170 367  71 220 297  84 141 352  84 221 352  49 158 336  49 222 336  142 223 235  66 223 235  20 128 384  20 224 384  127 165 225  85 165 225  27 161 226  76 161 226  76 227 288  42 227 288  108 208 228  46 208 228  85 148 229  148 151 229  37 329 388  74 218 231  218 231 371  95 232 319  80 276 277  120 233 254  72 120 233  10 234 325  72 234 325  12 133 235  66 235 236  133 235 236  28 133 236  41 237 353  75 172 238  30 243 347  66 236 241  236 241 357  4 143 240  4 251 252  67 239 357  67 241 357  29 242 262  89 242 262  177 246 361  243 246 361  26 151 244  70 151 244  178 244 245  70 244 245  144 246 303  56 144 246  91 182 248  6 182 248  70 151 248  91 151 248  90 249 250  34 249 250  114 185 250  34 185 250  78 251 304  164 264 304  89 251 252  89 262 286  83 273 373  68 254 274  32 160 254  68 160 254  18 213 256  47 213 255  213 255 256  75 255 256  87 185 257  114 185 257  22 158 258  79 158 258  115 286 287  80 259 300  87 260 387  180 327 387  181 261 302  38 94 261  103 252 286  89 252 286  9 134 263  134 263 283  77 278 279  77 126 279  15 131 265  131 329 388  105 268 355  24 268 355  80 277 376  95 267 376  39 134 283  105 268 331  8 135 269  93 135 269  86 140 270  42 129 370  88 171 271  51 171 271  160 219 272  88 160 272  33 176 273  83 176 273  68 253 274  83 274 275  253 274 275  36 253 275  212 276 277  59 212 276  267 277 376  19 267 277  189 278 279  16 189 278  126 264 279  53 264 279  78 126 295  77 126 280  64 139 309  81 139 281  81 154 282  49 154 282  268 283 331  82 268 283  266 284 386  48 284 386  81 139 285  40 139 285  33 273 287  103 273 287  33 259 300  33 287 300  119 195 288  42 119 288  31 125 289  31 148 289  31 125 290  71 125 290  169 193 291  79 169 291  86 226 292  86 112 292  132 294 310  64 140 345  64 310 345  132 293 345  126 280 295  24 280 295  111 179 296  57 179 296  11 210 297  109 210 297  54 205 298  54 190 298  170 196 299  65 196 299  115 232 300  80 232 300  31 118 301  91 118 301  96 136 302  38 136 302  69 203 303  96 203 303  4 251 304  4 164 304  249 305 366  58 305 366  207 256 306  90 207 306  39 283 331  39 104 331  116 234 308  72 234 308  139 281 309  22 281 309  40 139 310  64 139 310  93 156 311  49 156 311  255 312 358  47 255 312  98 313 314  98 138 313  97 338 383  23 156 315  93 156 315  97 314 338  43 314 316  237 317 380  41 237 317  122 245 318  70 245 318  29 194 319  95 194 319  29 194 320  29 146 320  81 285 385  130 285 385  102 166 322  51 166 322  102 169 323  55 169 323  169 258 324  102 169 324  117 233 325  72 233 325  62 168 326  62 155 326  87 327 387  87 177 327  153 186 328  99 186 328  73 265 388  131 265 388  142 307 330  50 142 330  104 307 331  105 307 331  27 161 332  88 145 362  3 214 333  3 138 333  161 332 334  84 332 334  52 191 335  52 199 335  79 336 337  79 158 336  63 222 337  63 200 337  314 316 338  137 316 338  99 260 372  99 339 372  121 340 354  121 230 354  0 123 341  0 124 341  59 276 342  59 113 342  100 180 343  56 180 343  144 303 344  96 303 344  13 140 345  13 293 345  122 318 346  92 318 346  30 238 347  172 238 347  88 145 348  88 160 348  63 222 349  156 222 349  149 195 350  1 149 350  52 188 351  188 351 356  117 233 352  117 141 352  93 237 353  93 135 353  150 340 354  150 202 354  147 295 355  24 295 355  5 180 356  100 180 356  28 236 357  28 239 357  98 312 358  98 172 358  107 359 375  74 359 375  26 178 371  57 178 360  30 177 361  30 243 361  145 332 362  27 332 362  110 155 363  25 155 363  48 155 364  110 155 364  110 261 365  94 261 365  109 210 366  58 210 366  71 297 367  109 297 367  147 330 368  50 330 368  48 326 369  157 266 386  129 270 370  86 270 370  178 360 371  73 360 371  87 185 372  87 260 372  83 275 373  240 275 373  7 187 374  7 166 374  163 218 375  74 218 375  80 232 376  95 232 376  45 215 377  107 215 377  170 367 378  109 367 378  108 228 379  76 228 379  106 179 380  111 179 380  111 296 381  23 296 381  67 175 382  95 175 382  184 338 383  69 184 383  84 141 384  128 141 384  8 154 385  81 154 385  157 369 386  48 369 386  5 180 387  5 260 387  37 231 388  73 231 388  163 375 389  107 375 389  </DataArray>
<DataArray  type="UInt32"  Name="offsets"  format="ascii">3 6 9 12 15 18 21 24 27 30 33 36 39 42 45 48 51 54 57 60 63 66 69 72 75 78 81 84 87 90 93 96 99 102 105 108 111 114 117 120 123 126 129 132 135 138 141 144 147 150 153 156 159 162 165 168 171 174 177 180 183 186 189 192 195 198 201 204 207 210 213 216 219 222 225 228 231 234 237 240 243 246 249 252 255 258 261 264 267 270 273 276 279 282 285 288 291 294 297 300 303 306 309 312 315 318 321 324 327 330 333 336 339 342 345 348 351 354 357 360 363 366 369 372 375 378 381 384 387 390 393 396 399 402 405 408 411 414 417 420 423 426 429 432 435 438 441 444 447 450 453 456 459 462 465 468 471 474 477 480 483 486 489 492 495 498 501 504 507 510 513 516 519 522 525 528 531 534 537 540 543 546 549 552 555 558 561 564 567 570 573 576 579 582 585 588 591 594 597 600 603 606 609 612 615 618 621 624 627 630 633 636 639 642 645 648 651 654 657 660 663 666 669 672 675 678 681 684 687 690 693 696 699 702 705 708 711 714 717 720 723 726 729 732 735 738 741 744 747 750 753 756 759 762 765 768 771 774 777 780 783 786 789 792 795 798 801 804 807 810 813 816 819 822 825 828 831 834 837 840 843 846 849 852 855 858 861 864 867 870 873 876 879 882 885 888 891 894 897 900 903 906 909 912 915 918 921 924 927 930 933 936 939 942 945 948 951 954 957 960 963 966 969 972 975 978 981 984 987 990 993 996 999 1002 1005 1008 1011 1014 1017 1020 1023 1026 1029 1032 1035 1038 1041 1044 1047 1050 1053 1056 1059 1062 1065 1068 1071 1074 1077 1080 1083 1086 1089 1092 1095 1098 1101 1104 1107 1110 1113 1116 1119 1122 1125 1128 1131 1134 1137 1140 1143 1146 1149 1152 1155 1158 1161 1164 1167 1170 1173 1176 1179 1182 1185 1188 1191 1194 1197 1200 1203 1206 1209 1212 1215 1218 1221 1224 1227 1230 1233 1236 1239 1242 1245 1248 1251 1254 1257 1260 1263 1266 1269 1272 1275 1278 1281 1284 1287 1290 1293 1296 1299 1302 1305 1308 1311 1314 1317 1320 1323 1326 1329 1332 1335 1338 1341 1344 1347 1350 1353 1356 1359 1362 1365 1368 1371 1374 1377 1380 1383 1386 1389 1392 1395 1398 1401 1404 1407 1410 1413 1416 1419 1422 1425 1428 1431 1434 1437 1440 1443 1446 1449 1452 1455 1458 1461 1464 1467 1470 1473 1476 1479 1482 1485 1488 1491 1494 1497 1500 1503 1506 1509 1512 1515 1518 1521 1524 1527 1530 1533 1536 1539 1542 1545 1548 1551 1554 1557 1560 1563 1566 1569 1572 1575 1578 1581 1584 1587 1590 1593 1596 1599 1602 1605 1608 1611 1614 1617 1620 1623 1626 1629 1632 1635 1638 1641 1644 1647 1650 1653 1656 1659 1662 1665 1668 1671 1674 1677 1680 1683 1686 1689 1692 1695 1698 1701 1704 1707 1710 1713 1716 1719 1722 1725 1728 1731 1734 1737 1740 1743 1746 1749 1752 1755 1758 1761 1764 1767 1770 1773 1776 1779 1782 1785 1788 1791 1794 1797 1800 1803 1806 1809 1812 1815 1818 1821 1824 1827 1830 1833 1836 1839 1842 1845 1848 1851 1854 1857 1860 1863 1866 1869 1872 1875 1878 1881 1884 1887 1890 1893 1896 1899 1902 1905 1908 1911 1914 1917 1920 1923 1926 1929 1932 1935 1938 1941 1944 1947 1950 1953 1956 1959 1962 1965 1968 1971 1974 1977 1980 1983 1986 1989 1992 1995 1998 2001 2004 2007 2010 2013 2016 2019 2022 2025 2028 2031 2034 2037 2040 2043 2046 </DataArray>
<DataArray  type="UInt8"  Name="types"  format="ascii">5 5 5 5 5 5 5 5 5 5 5 5 5 5 5 5 5 5 5 5 5 5 5 5 5 5 5 5 5 5 5 5 5 5 5 5 5 5 5 5 5 5 5 5 5 5 5 5 5 5 5 5 5 5 5 5 5 5 5 5 5 5 5 5 5 5 5 5 5 5 5 5 5 5 5 5 5 5 5 5 5 5 5 5 5 5 5 5 5 5 5 5 5 5 5 5 5 5 5 5 5 5 5 5 5 5 5 5 5 5 5 5 5 5 5 5 5 5 5 5 5 5 5 5 5 5 5 5 5 5 5 5 5 5 5 5 5 5 5 5 5 5 5 5 5 5 5 5 5 5 5 5 5 5 5 5 5 5 5 5 5 5 5 5 5 5 5 5 5 5 5 5 5 5 5 5 5 5 5 5 5 5 5 5 5 5 5 5 5 5 5 5 5 5 5 5 5 5 5 5 5 5 5 5 5 5 5 5 5 5 5 5 5 5 5 5 5 5 5 5 5 5 5 5 5 5 5 5 5 5 5 5 5 5 5 5 5 5 5 5 5 5 5 5 5 5 5 5 5 5 5 5 5 5 5 5 5 5 5 5 5 5 5 5 5 5 5 5 5 5 5 5 5 5 5 5 5 5 5 5 5 5 5 5 5 5 5 5 5 5 5 5 5 5 5 5 5 5 5 5 5 5 5 5 5 5 5 5 5 5 5 5 5 5 5 5 5 5 5 5 5 5 5 5 5 5 5 5 5 5 5 5 5 5 5 5 5 5 5 5 5 5 5 5 5 5 5 5 5 5 5 5 5 5 5 5 5 5 5 5 5 5 5 5 5 5 5 5 5 5 5 5 5 5 5 5 5 5 5 5 5 5 5 5 5 5 5 5 5 5 5 5 5 5 5 5 5 5 5 5 5 5 5 5 5 5 5 5 5 5 5 5 5 5 5 5 5 5 5 5 5 5 5 5 5 5 5 5 5 5 5 5 5 5 5 5 5 5 5 5 5 5 5 5 5 5 5 5 5 5 5 5 5 5 5 5 5 5 5 5 5 5 5 5 5 5 5 5 5 5 5 5 5 5 5 5 5 5 5 5 5 5 5 5 5 5 5 5 5 5 5 5 5 5 5 5 5 5 5 5 5 5 5 5 5 5 5 5 5 5 5 5 5 5 5 5 5 5 5 5 5 5 5 5 5 5 5 5 5 5 5 5 5 5 5 5 5 5 5 5 5 5 5 5 5 5 5 5 5 5 5 5 5 5 5 5 5 5 5 5 5 5 5 5 5 5 5 5 5 5 5 5 5 5 5 5 5 5 5 5 5 5 5 5 5 5 5 5 5 5 5 5 5 5 5 5 5 5 5 5 5 5 5 5 5 5 5 5 5 5 5 5 5 5 5 5 5 5 5 5 5 5 5 5 5 5 5 5 5 5 5 5 5 5 5 5 5 5 5 5 5 5 5 5 5 5 5 5 5 5 5 5 5 5 5 5 5 5 5 5 5 5 5 5 5 5 5 5 5 5 5 5 5 5 5 5 5 5 5 5 5 5 </DataArray>
</Cells>
<PointData  Vectors="x-0"> 
<DataArray  type="Float64"  Name="x-0"  NumberOfComponents="3" format="ascii">3.8948128970987639e-01 5.6007758349777489e-02 0.0000000000000000e+00  1.1798813336664820e+00 2.9624033741518879e-01 0.0000000000000000e+00  5.1994740745347090e-01 3.4809483766607019e-01 0.0000000000000000e+00  4.3543374522387662e-01 -3.7666904741936159e-02 0.0000000000000000e+00  0.0000000000000000e+00 0.0000000000000000e+00 0.0000000000000000e+00  0.0000000000000000e+00 0.0000000000000000e+00 0.0000000000000000e+00  0.0000000000000000e+00 0.0000000000000000e+00 0.0000000000000000e+00  0.0000000000000000e+00 0.0000000000000000e+00 0.0000000000000000e+00  6.9667008522727258e-01 4.7096188812185125e-01 0.0000000000000000e+00  2.9435426739457532e-01 2.6767667454886257e-01 0.0000000000000000e+00  4.3024008529271307e-01 -6.4469902861557030e-02 0.0000000000000000e+00  3.3648315053465178e-01 -8.4938584682073257e-02 0.0000000000000000e+00  2.9176221473795028e-01 2.3377459315746019e-01 0.0000000000000000e+00  9.8759646268610379e-01 3.9553008481338214e-01 0.0000000000000000e+00  3.9163602843738354e-01 1.4670511155483090e-01 0.0000000000000000e+00  5.2469327358458329e-01 4.3474883741004117e-01 0.0000000000000000e+00  0.0000000000000000e+00 0.0000000000000000e+00 0.0000000000000000e+00  0.0000000000000000e+00 0.0000000000000000e+00 0.0000000000000000e+00  4.2845236057097519e-01 -1.1025913757385723e-01 0.0000000000000000e+00  2.9102556661392942e-01 -2.3431578431970412e-02 0.0000000000000000e+00  8.1954527955965961e-01 6.6928346130116764e-02 0.0000000000000000e+00  3.4527416156272783e-01 1.1701051965502124e-01 0.0000000000000000e+00  4.7110800049423701e-01 2.9404178777939988e-01 0.0000000000000000e+00  3.2978372109848519e-01 3.0602878498063030e-01 0.0000000000000000e+00  1.6891047671062734e-01 1.7900771736146487e-01 0.0000000000000000e+00  2.4426048097329961e-01 1.6094009242995178e-01 0.0000000000000000e+00  2.6932102531015711e-01 2.1818310570203356e-01 0.0000000000000000e+00  7.8811813502495631e-01 1.4728995899967343e-01 0.0000000000000000e+00  3.3205374909627328e-01 1.5460532371224664e-01 0.0000000000000000e+00  1.8164976310705389e-01 9.5861055574262444e-02 0.0000000000000000e+00  3.9370317227364904e-01 -5.5616808064446015e-03 0.0000000000000000e+00  1.8331767655490699e-01 -1.9315917610907191e-02 0.0000000000000000e+00  4.4641615730978912e-01 -7.2594017785487741e-02 0.0000000000000000e+00  1.7114094442203720e-01 -4.1343788896760811e-02 0.0000000000000000e+00  2.9277300148862057e-01 -1.2154441710484994e-01 0.0000000000000000e+00  0.0000000000000000e+00 0.0000000000000000e+00 0.0000000000000000e+00  5.6151282112447208e-17 0.0000000000000000e+00 0.0000000000000000e+00  5.0457842719876944e-01 3.8873804488320429e-01 0.0000000000000000e+00  3.3474517158352363e-01 2.2695229406072570e-01 0.0000000000000000e+00  2.8072285321730378e-01 2.7158285723592651e-01 0.0000000000000000e+00  8.3592196547329478e-01 4.5117858955602763e-01 0.0000000000000000e+00  5.9097470401587882e-01 4.6496867036067085e-01 0.0000000000000000e+00  1.1048119344166571e+00 3.2996909746541891e-01 0.0000000000000000e+00  4.2985305308662147e-01 4.6465041342916666e-02 0.0000000000000000e+00  3.2310848455386360e-01 1.5535787663924366e-02 0.0000000000000000e+00  4.1905526221531691e-01 2.3937841877719854e-01 0.0000000000000000e+00  1.0146950474184797e+00 1.8356249267285210e-01 0.0000000000000000e+00  4.4653844419710614e-01 -7.6653474878945901e-02 0.0000000000000000e+00  2.0858215878791497e-01 1.9315067729688470e-01 0.0000000000000000e+00  4.2998795895357972e-01 3.2930412666200881e-01 0.0000000000000000e+00  1.9253688268482771e-01 1.8554675237846902e-01 0.0000000000000000e+00  5.7946949769739353e-01 2.1863271276828952e-01 0.0000000000000000e+00  -2.1073467727578173e-18 0.0000000000000000e+00 0.0000000000000000e+00  0.0000000000000000e+00 0.0000000000000000e+00 0.0000000000000000e+00  -7.3127938502003720e-17 -1.4575787277131521e-17 0.0000000000000000e+00  0.0000000000000000e+00 0.0000000000000000e+00 0.0000000000000000e+00  2.8357377590437560e-01 8.1475080265101071e-02 0.0000000000000000e+00  3.3951448112109839e-01 3.2086698806203356e-01 0.0000000000000000e+00  3.8492458808518454e-01 -1.2021058100068098e-01 0.0000000000000000e+00  3.2080889811636915e-01 -5.5919082699137861e-02 0.0000000000000000e+00  6.1148824506220378e-01 -2.3779088366889727e-02 0.0000000000000000e+00  3.1691782959254267e-01 2.9838217996141149e-05 0.0000000000000000e+00  1.1847322099767127e-01 1.0422312485781055e-01 0.0000000000000000e+00  1.8367813159870280e-01 1.6733151017102113e-01 0.0000000000000000e+00  7.6181152900725524e-01 3.5220531006168088e-01 0.0000000000000000e+00  1.4763184797151990e-01 -9.3195372448815636e-02 0.0000000000000000e+00  2.5025787087329315e-01 1.6395267562626026e-01 0.0000000000000000e+00  2.7821583800931288e-01 8.8827902782952231e-02 0.0000000000000000e+00  1.7940327464341202e-01 -8.2794752996243004e-02 0.0000000000000000e+00  3.7670616311126887e-01 9.5855580901143170e-02 0.0000000000000000e+00  1.7049475455696406e-01 1.8132359893060968e-01 0.0000000000000000e+00  2.5032784366891409e-01 -9.3835670943210311e-02 0.0000000000000000e+00  3.1539427842928469e-01 -8.4107247342596669e-02 0.0000000000000000e+00  4.0527223746765012e-01 3.4311474904670125e-01 0.0000000000000000e+00  3.8827058401599929e-01 2.7737066898199131e-01 0.0000000000000000e+00  4.2922283021094071e-01 -6.4756639978496663e-02 0.0000000000000000e+00  9.7355141171588133e-01 2.0726707308095929e-01 0.0000000000000000e+00  9.1969198955762776e-02 9.4683189585176492e-02 0.0000000000000000e+00  1.1293340881797395e-01 1.2918989571653025e-01 0.0000000000000000e+00  2.2358995175590524e-01 1.7810008152535381e-01 0.0000000000000000e+00  2.2650609883484549e-01 -1.6958954385498128e-02 0.0000000000000000e+00  6.2554502735930184e-01 3.9833890406380551e-01 0.0000000000000000e+00  2.4032632256263478e-01 2.3814971241758814e-01 0.0000000000000000e+00  9.7936648605741902e-02 -5.4551772693873755e-02 0.0000000000000000e+00  7.1245073475068799e-01 3.0282768231131095e-02 0.0000000000000000e+00  2.5486580683716481e-01 1.0295549802732329e-01 0.0000000000000000e+00  9.4332429877505430e-01 2.8537776169448253e-01 0.0000000000000000e+00  2.9797704848655882e-01 -4.2153408367137220e-02 0.0000000000000000e+00  5.3666510670821410e-01 4.4192274620336827e-02 0.0000000000000000e+00  1.0044282995560974e-01 9.4860446468003498e-02 0.0000000000000000e+00  3.8315819370401005e-01 -1.1491657478246407e-01 0.0000000000000000e+00  1.0496977598936798e-01 4.5589039938253036e-02 0.0000000000000000e+00  1.4438714182592169e-01 1.5057538410484120e-01 0.0000000000000000e+00  4.9967110519082425e-01 4.0006143701601710e-01 0.0000000000000000e+00  3.1111512244905337e-01 2.5199976091544668e-01 0.0000000000000000e+00  2.3436536223801238e-01 3.7919306358675096e-02 0.0000000000000000e+00  3.3466600245071915e-01 1.6946656435847940e-01 0.0000000000000000e+00  4.2168039834519783e-01 3.5822147551884558e-02 0.0000000000000000e+00  4.4141424221652475e-01 -2.1360493503253329e-02 0.0000000000000000e+00  1.6513719600036214e-01 -9.4393653731749627e-02 0.0000000000000000e+00  1.2464045625730803e-01 7.8562881431646719e-02 0.0000000000000000e+00  0.0000000000000000e+00 0.0000000000000000e+00 0.0000000000000000e+00  2.8606686864771436e-01 1.8230913066361246e-01 0.0000000000000000e+00  6.9520517471816007e-02 6.1816938853122803e-03 0.0000000000000000e+00  2.8288192302309384e-01 2.5820224827426641e-01 0.0000000000000000e+00  2.2513538782391423e-01 2.2689030097783050e-01 0.0000000000000000e+00  5.5267476837067397e-01 4.5274453785094987e-01 0.0000000000000000e+00  3.4339604709421528e-01 1.8796454802040324e-01 0.0000000000000000e+00  8.9002135475551325e-01 1.2083661117803363e-01 0.0000000000000000e+00  3.2024989622777039e-01 -1.2122846293426412e-01 0.0000000000000000e+00  2.6717195714275921e-01 2.1057723022650759e-01 0.0000000000000000e+00  4.3008941269144219e-01 3.8169932835020148e-01 0.0000000000000000e+00  7.8468644250837793e-01 2.4561755672936245e-01 0.0000000000000000e+00  3.6554248427282521e-01 -6.4739426944460429e-02 0.0000000000000000e+00  3.7086762163260129e-01 -7.7820826521766709e-02 0.0000000000000000e+00  1.4820303364003745e-01 2.7727532180398452e-02 0.0000000000000000e+00  2.7653198867147699e-01 -6.5178546538285947e-02 0.0000000000000000e+00  4.7700589897534051e-01 -6.7071468892289793e-02 0.0000000000000000e+00  1.0657030663961434e-01 -4.3823621350728002e-02 0.0000000000000000e+00  1.1462076226755320e+00 3.0866452720918747e-01 0.0000000000000000e+00  2.3526551065368217e-01 -8.9149487217779100e-02 0.0000000000000000e+00  5.0893475032271418e-01 3.6661723022389664e-01 0.0000000000000000e+00  2.5819978389857845e-01 2.6122777675944447e-01 0.0000000000000000e+00  3.6021702688665536e-01 1.0597860054324708e-01 0.0000000000000000e+00  3.5404283486462018e-01 3.5651785459262793e-02 0.0000000000000000e+00  2.5832054616773198e-01 -3.6897559323187779e-02 0.0000000000000000e+00  1.0450381023675849e-01 1.1325449333778111e-01 0.0000000000000000e+00  3.2486331497627291e-01 5.6025159059205631e-02 0.0000000000000000e+00  7.1448994295410806e-01 1.5586894284756929e-02 0.0000000000000000e+00  1.0522099077519531e+00 3.6099285387006125e-01 0.0000000000000000e+00  7.6266197466928265e-01 4.6489019047540225e-01 0.0000000000000000e+00  5.0887783518107688e-01 4.1270510024469209e-01 0.0000000000000000e+00  9.1346808746955410e-01 4.2740492900194516e-01 0.0000000000000000e+00  3.0852582826483160e-01 1.9830543882299434e-01 0.0000000000000000e+00  2.8435223509954621e-01 2.7428583530879119e-01 0.0000000000000000e+00  6.3913777354406653e-01 4.7078215885537011e-01 0.0000000000000000e+00  3.6315838823613922e-01 1.9152448820714235e-01 0.0000000000000000e+00  4.1475842241299071e-01 9.6726355106253409e-02 0.0000000000000000e+00  4.3647434048674350e-01 1.0946313765395192e-03 0.0000000000000000e+00  7.0960551446993358e-01 3.9096375780207659e-01 0.0000000000000000e+00  8.7712105652556038e-01 3.3258739336170262e-01 0.0000000000000000e+00  6.1976695319284747e-01 -2.3542550064805948e-02 0.0000000000000000e+00  2.4545685911087564e-01 2.2183512663321042e-01 0.0000000000000000e+00  0.0000000000000000e+00 0.0000000000000000e+00 0.0000000000000000e+00  2.9712649438027061e-01 1.3516999301635385e-01 0.0000000000000000e+00  6.6066292960182704e-01 4.2407840792312995e-02 0.0000000000000000e+00  1.9391667034215015e-01 1.5085205274017821e-01 0.0000000000000000e+00  1.7469675683539215e-01 1.8558265326920395e-01 0.0000000000000000e+00  1.8214177420242098e-01 6.2122269155645081e-02 0.0000000000000000e+00  1.1011021179281273e+00 2.4189332368006519e-01 0.0000000000000000e+00  4.6718851739140183e-01 2.9592739401233337e-01 0.0000000000000000e+00  1.7911627771626401e-01 1.4340383986232552e-01 0.0000000000000000e+00  0.0000000000000000e+00 0.0000000000000000e+00 0.0000000000000000e+00  -1.7673954383783673e-17 0.0000000000000000e+00 0.0000000000000000e+00  5.7783076377013887e-01 4.0839612940767300e-01 0.0000000000000000e+00  2.0031813225423670e-01 1.6493212779096236e-01 0.0000000000000000e+00  3.7474813738736512e-01 3.1828754823862693e-01 0.0000000000000000e+00  1.6316909730749210e-01 1.6535853219732577e-01 0.0000000000000000e+00  4.0669405703065570e-01 2.8982232999837226e-01 0.0000000000000000e+00  2.6132643320748372e-01 2.3408881489229752e-01 0.0000000000000000e+00  4.0677294530122399e-01 -6.0856292816039867e-02 0.0000000000000000e+00  8.5456327750466665e-01 1.3284502263602735e-01 0.0000000000000000e+00  6.4928654786169715e-02 -5.4067393438039603e-02 0.0000000000000000e+00  2.9440145195180306e-01 1.8771736086304117e-01 0.0000000000000000e+00  1.2149903116653951e-16 0.0000000000000000e+00 0.0000000000000000e+00  2.6660433281917084e-01 3.4061616761664380e-02 0.0000000000000000e+00  3.7028666147481959e-01 1.3911960499996415e-01 0.0000000000000000e+00  5.8879364642974452e-01 2.9506366477122037e-01 0.0000000000000000e+00  1.2304825506523132e-01 1.1950331342027361e-01 0.0000000000000000e+00  1.7047460365925404e-01 1.3375858687391556e-01 0.0000000000000000e+00  2.5710621859392807e-01 -1.1915820937976793e-01 0.0000000000000000e+00  6.7770199093219441e-01 1.5243022479925802e-01 0.0000000000000000e+00  4.3072877988136632e-01 -1.8243243685943222e-02 0.0000000000000000e+00  1.3988957572983532e-01 1.4517813593897094e-01 0.0000000000000000e+00  3.0146393731486831e-01 -4.0740597866745654e-03 0.0000000000000000e+00  2.8014584502954737e-01 3.9528049225448919e-02 0.0000000000000000e+00  1.8615150905869873e-01 -7.0654258006419002e-02 0.0000000000000000e+00  3.4158135936762285e-01 1.9671426813381063e-02 0.0000000000000000e+00  3.1963094039829631e-01 2.8904739433985821e-01 0.0000000000000000e+00  4.4551471663769848e-01 3.9155868448662667e-01 0.0000000000000000e+00  1.9514823610239640e-01 4.9446069064052779e-02 0.0000000000000000e+00  2.9458915907199640e-01 1.9215110876366831e-01 0.0000000000000000e+00  4.7953170682905819e-02 -6.2829394314287699e-03 0.0000000000000000e+00  1.7423727116149210e-01 -7.2735207295903145e-02 0.0000000000000000e+00  4.0058923521466577e-01 1.0289813675996418e-01 0.0000000000000000e+00  3.0750804950344357e-01 -9.5123770931723958e-02 0.0000000000000000e+00  9.4051636454256682e-02 -7.6027430810483840e-02 0.0000000000000000e+00  7.2605455274340360e-17 -1.9348036808100776e-17 0.0000000000000000e+00  4.5005838303439696e-17 3.8668435248701503e-17 0.0000000000000000e+00  -1.9426884793864565e-17 0.0000000000000000e+00 0.0000000000000000e+00  -5.9881183637740600e-18 -4.6407020301061682e-17 0.0000000000000000e+00  0.0000000000000000e+00 0.0000000000000000e+00 0.0000000000000000e+00  0.0000000000000000e+00 0.0000000000000000e+00 0.0000000000000000e+00  0.0000000000000000e+00 0.0000000000000000e+00 0.0000000000000000e+00  2.3014346380426456e-01 8.5924197178836204e-02 0.0000000000000000e+00  1.0638368790473651e+00 2.4373428397203684e-01 0.0000000000000000e+00  2.1240398525429563e-01 -1.1562691795748080e-01 0.0000000000000000e+00  2.1713057819470918e-01 1.2222503056951668e-01 0.0000000000000000e+00  1.6935647055768394e-01 1.2632011983642322e-01 0.0000000000000000e+00  8.2337786811086333e-02 6.8099364773855517e-02 0.0000000000000000e+00  1.1998245850435156e-01 1.0756534171641186e-01 0.0000000000000000e+00  6.0498489769640042e-02 5.7861342237834505e-02 0.0000000000000000e+00  4.2434080635445987e-01 2.7935539916610136e-01 0.0000000000000000e+00  3.7230555002459870e-01 1.4288120734353654e-01 0.0000000000000000e+00  2.1168658685039199e-01 2.0572901631259044e-01 0.0000000000000000e+00  1.0354731169991499e-01 1.0037150600594114e-01 0.0000000000000000e+00  3.1444485477613576e-01 5.8854973592259670e-02 0.0000000000000000e+00  4.0518780859199988e-01 -8.8564031455367495e-02 0.0000000000000000e+00  9.2067979409665679e-01 1.2415565346891858e-01 0.0000000000000000e+00  3.2115932622170035e-01 -4.8271021567247802e-02 0.0000000000000000e+00  3.5885159638932485e-01 -1.0912369562425560e-01 0.0000000000000000e+00  4.0901483660698651e-01 -1.1980767297702896e-01 0.0000000000000000e+00  2.9694379495897383e-01 -4.1304191400996768e-02 0.0000000000000000e+00  4.4138612631706386e-01 -9.4825794690334808e-02 0.0000000000000000e+00  4.4397519051041678e-01 -5.7269793576276533e-02 0.0000000000000000e+00  3.7760095761403939e-01 1.7902649522651309e-01 0.0000000000000000e+00  5.1326473020505747e-01 -5.1379099976659126e-02 0.0000000000000000e+00  7.0655569706323451e-01 2.8404093303619538e-01 0.0000000000000000e+00  3.3536501844085415e-01 2.5593759053213300e-01 0.0000000000000000e+00  2.5161608611578112e-01 -5.6522949534438982e-02 0.0000000000000000e+00  2.9113352634683420e-01 -7.7139963862085395e-02 0.0000000000000000e+00  5.8112712370320929e-01 -2.2730447332330553e-02 0.0000000000000000e+00  3.0537345646329539e-01 2.5559408199112715e-01 0.0000000000000000e+00  2.2937997702035332e-01 1.8867980280310764e-01 0.0000000000000000e+00  7.8954158885203751e-01 5.7902643239016997e-02 0.0000000000000000e+00  3.0724299911543429e-01 1.2191530458327256e-01 0.0000000000000000e+00  9.0390428916249765e-01 2.0378114465508640e-01 0.0000000000000000e+00  1.0135045131616975e+00 2.7294754465326265e-01 0.0000000000000000e+00  9.8425816546112666e-01 1.8307094745233707e-01 0.0000000000000000e+00  2.2844569742469681e-01 1.4001876174486277e-01 0.0000000000000000e+00  4.5322857044152437e-01 3.3548261883375330e-01 0.0000000000000000e+00  4.1228998347713913e-01 3.2471173893475336e-01 0.0000000000000000e+00  1.9797736623579715e-01 2.3111618374978046e-02 0.0000000000000000e+00  3.8019674846176926e-01 -8.5558228024676650e-02 0.0000000000000000e+00  3.5551258805815988e-01 -7.5205067063535150e-02 0.0000000000000000e+00  2.7106722545844453e-01 2.0083629435181666e-01 0.0000000000000000e+00  2.9105729325856283e-01 1.6067000033655715e-01 0.0000000000000000e+00  4.9545531952838318e-01 4.1268419566044751e-01 0.0000000000000000e+00  4.0866033247919731e-01 -5.0072918501882578e-02 0.0000000000000000e+00  3.1847785376044113e-01 1.0059543175632107e-01 0.0000000000000000e+00  2.4095028537112796e-02 -2.0013190070602167e-03 0.0000000000000000e+00  2.5379286650820848e-01 1.2400225746038825e-01 0.0000000000000000e+00  1.5021220821402492e-01 1.1861214662863734e-01 0.0000000000000000e+00  3.9878272400369136e-01 4.3863750964644781e-02 0.0000000000000000e+00  2.3717959542711209e-01 2.2401205696177148e-01 0.0000000000000000e+00  2.5256439651636758e-01 2.5544463983566795e-01 0.0000000000000000e+00  3.4848614354701951e-01 7.3816842483035952e-02 0.0000000000000000e+00  1.0019587279110767e-01 1.2343067905185766e-01 0.0000000000000000e+00  9.0921299931269059e-02 9.5493685649857191e-02 0.0000000000000000e+00  3.4081770773763115e-01 -1.2427616456619374e-01 0.0000000000000000e+00  3.4826267029073593e-01 -1.1022300080553177e-01 0.0000000000000000e+00  7.0482044901903185e-02 9.4191945322121315e-02 0.0000000000000000e+00  5.0471619857347320e-02 5.1844135669870353e-02 0.0000000000000000e+00  4.9802840973706956e-02 -4.1957367733878502e-02 0.0000000000000000e+00  3.1224681103547647e-01 -8.9560054760384658e-02 0.0000000000000000e+00  4.4148462733698801e-01 -7.0720491543508401e-02 0.0000000000000000e+00  4.2581885855260448e-01 -9.4549262394674968e-02 0.0000000000000000e+00  3.5847724036623962e-01 -3.5732839067964421e-02 0.0000000000000000e+00  3.1703473735490834e-01 2.2555268125484029e-01 0.0000000000000000e+00  2.2142492096852501e-01 -4.0185142292174306e-02 0.0000000000000000e+00  1.9420999748183837e-01 -5.3059672467707028e-02 0.0000000000000000e+00  3.0486071196783965e-01 2.2547432357492966e-01 0.0000000000000000e+00  1.3904133677409994e-01 7.3780431524738274e-02 0.0000000000000000e+00  2.6809669757278626e-01 2.5487083866293564e-01 0.0000000000000000e+00  5.4595107915244710e-02 5.6093623152707973e-02 0.0000000000000000e+00  4.4583141185449299e-01 3.8409024079323667e-01 0.0000000000000000e+00  2.0000360199843434e-01 2.0381166040080331e-01 0.0000000000000000e+00  2.6682928682574231e-01 7.1374571215136861e-03 0.0000000000000000e+00  2.2070655040385589e-01 2.2543993746952709e-01 0.0000000000000000e+00  5.8682085189019395e-01 4.3317724202746660e-01 0.0000000000000000e+00  9.6954023300191394e-01 3.4491040437325354e-01 0.0000000000000000e+00  5.3996423304388796e-01 1.3197898439479402e-01 0.0000000000000000e+00  3.7545684504403365e-01 2.6774471100181114e-02 0.0000000000000000e+00  1.1055676531832917e-01 -3.7060418683105653e-02 0.0000000000000000e+00  1.3708643364494905e-01 -7.4062090028623198e-02 0.0000000000000000e+00  3.3172102294856967e-02 -2.7271774051619124e-02 0.0000000000000000e+00  2.6770464797027799e-01 -4.4363867189012675e-02 0.0000000000000000e+00  2.6080968359134116e-01 -1.8422628862341257e-02 0.0000000000000000e+00  4.9190131841939662e-02 4.8460761346077220e-02 0.0000000000000000e+00  4.7975148233180831e-02 4.8999188846723142e-02 0.0000000000000000e+00  1.3341040237553631e-01 1.4073492747683866e-01 0.0000000000000000e+00  5.3097523523979739e-01 3.4258946819427066e-01 0.0000000000000000e+00  5.1748882078733327e-01 3.6123860609156455e-01 0.0000000000000000e+00  2.6138410980587262e-01 2.5811208590018836e-01 0.0000000000000000e+00  2.3225614073029649e-01 2.2247407900594457e-01 0.0000000000000000e+00  7.3428826987542273e-01 4.2970496130585245e-01 0.0000000000000000e+00  1.0153963783668286e-01 4.1842287251196965e-02 0.0000000000000000e+00  1.2467378357727792e-01 -3.8071764275210891e-03 0.0000000000000000e+00  1.0780415514989274e+00 2.8238644014390940e-01 0.0000000000000000e+00  2.1831796475157553e-01 2.9730708028144495e-02 0.0000000000000000e+00  2.1736932657482466e-01 -5.7478744020221725e-02 0.0000000000000000e+00  9.4196345704006521e-02 8.3308837997678353e-02 0.0000000000000000e+00  8.5986279857681136e-01 2.2933606057463987e-01 0.0000000000000000e+00  9.5132135357428060e-01 4.1238503441735874e-01 0.0000000000000000e+00  8.7464390317546814e-01 4.4040591073188479e-01 0.0000000000000000e+00  1.4247431213123685e-01 1.5580644009716638e-01 0.0000000000000000e+00  3.4443021548467051e-01 3.2666815590889892e-01 0.0000000000000000e+00  3.1375887902584332e-01 -1.0428405371307642e-01 0.0000000000000000e+00  8.9158476944951576e-02 8.3332231109866026e-02 0.0000000000000000e+00  2.0478505740935440e-01 -1.0266662994488453e-01 0.0000000000000000e+00  1.8210480618291502e-01 -8.6352180988813268e-03 0.0000000000000000e+00  1.4115082068272880e-01 9.2006818085901849e-03 0.0000000000000000e+00  3.2925320405793701e-01 2.0041761258404439e-01 0.0000000000000000e+00  3.4506880056861561e-01 1.3290623489907230e-01 0.0000000000000000e+00  6.0176280017456951e-02 7.2482819376871857e-02 0.0000000000000000e+00  3.8301002410156948e-01 -1.2253553040676009e-01 0.0000000000000000e+00  4.1022127220284399e-01 -1.1241253960822777e-01 0.0000000000000000e+00  2.5238585261352853e-01 2.4114737276537132e-01 0.0000000000000000e+00  2.4637517430358780e-01 -7.2302255633443155e-02 0.0000000000000000e+00  6.0974055428001750e-01 3.3953799193230760e-01 0.0000000000000000e+00  8.2062101936683396e-01 3.9863552312594375e-01 0.0000000000000000e+00  4.9554117481358728e-01 3.8077920729235870e-01 0.0000000000000000e+00  4.4522501192138525e-01 -5.0320050816020520e-02 0.0000000000000000e+00  4.3415323328285582e-01 2.2951836328898599e-02 0.0000000000000000e+00  4.3405074012465628e-01 1.9491891283384619e-02 0.0000000000000000e+00  4.2212841230605591e-01 3.6417131998498486e-01 0.0000000000000000e+00  4.2337763616858165e-01 7.1283529626719064e-02 0.0000000000000000e+00  5.7055516539272222e-01 4.5961824909641508e-01 0.0000000000000000e+00  1.8287463525236788e-01 1.9783284320134739e-01 0.0000000000000000e+00  1.9950581726047756e-01 6.0465192278051465e-02 0.0000000000000000e+00  2.2028208660392237e-01 1.3544397896169405e-01 0.0000000000000000e+00  7.2852639441116751e-01 4.6864510564261247e-01 0.0000000000000000e+00  4.6738749203375224e-01 2.3670752661742206e-01 0.0000000000000000e+00  1.0649469347583441e-01 8.9747983396126357e-02 0.0000000000000000e+00  4.0409031715449545e-01 2.4578248779985046e-01 0.0000000000000000e+00  4.0075063553448409e-01 -7.7638578056001134e-02 0.0000000000000000e+00  1.5806310542689875e-01 1.4267759739432118e-01 0.0000000000000000e+00  2.8161055028032644e-01 3.2412205712125705e-02 0.0000000000000000e+00  9.4022211951486856e-02 -5.3769652762233534e-02 0.0000000000000000e+00  5.0540098315674031e-01 4.0067703823594197e-01 0.0000000000000000e+00  2.0588442467254719e-01 2.0651961859547024e-01 0.0000000000000000e+00  2.5356688793972015e-01 2.5045984698744261e-01 0.0000000000000000e+00  7.6537959150255930e-01 9.2915282231196702e-02 0.0000000000000000e+00  4.4221258265664898e-01 -2.9503619764533969e-02 0.0000000000000000e+00  8.0944154091751952e-01 8.3871164329316142e-02 0.0000000000000000e+00  5.9909980206098952e-02 5.4498424909460982e-02 0.0000000000000000e+00  3.4391589307092724e-01 2.6657392429788940e-01 0.0000000000000000e+00  2.2601058991943851e-01 1.8843956112886057e-01 0.0000000000000000e+00  4.1761722086824338e-01 7.0714820742978676e-02 0.0000000000000000e+00  2.4626663798928872e-01 -1.0943942702140658e-01 0.0000000000000000e+00  5.1396929971489003e-01 3.5684728371792163e-01 0.0000000000000000e+00  3.4636367153400666e-01 7.2150043829120311e-02 0.0000000000000000e+00  3.0388257766421334e-01 -6.0334505403457188e-02 0.0000000000000000e+00  2.0994282708013295e-01 9.1336904757115089e-02 0.0000000000000000e+00  2.9748719073807173e-01 1.6524209003431745e-01 0.0000000000000000e+00  8.7185215287010409e-01 3.7654941888380772e-01 0.0000000000000000e+00  2.2318281382915423e-01 2.2620986715296515e-01 0.0000000000000000e+00  4.1532259943037025e-01 4.5644803796157860e-03 0.0000000000000000e+00  5.4366121940815515e-01 -1.5629525466705263e-02 0.0000000000000000e+00  2.7284767616057598e-01 2.4642580919222221e-01 0.0000000000000000e+00  1.1637406880212120e+00 3.0092375439796121e-01 0.0000000000000000e+00  4.6294651590106269e-02 4.1960840284439652e-02 0.0000000000000000e+00  5.5020454460616774e-01 -4.5190179672768352e-02 0.0000000000000000e+00  6.1391136554715742e-01 4.6869287037906043e-01 0.0000000000000000e+00  4.6438087242043907e-01 3.2451166711984686e-01 0.0000000000000000e+00  1.9430155923300774e-01 2.0335250327920223e-01 0.0000000000000000e+00  9.4429632708074418e-02 4.5250052088367812e-02 0.0000000000000000e+00  2.9003216106149277e-01 1.2291422330694614e-01 0.0000000000000000e+00  4.3938852701496467e-01 -4.3056171740088051e-02 0.0000000000000000e+00  3.7772190197665084e-01 2.3991390030563195e-01 0.0000000000000000e+00  3.8119806981598203e-01 3.3899739640562859e-01 0.0000000000000000e+00  3.7457952390392507e-01 3.3748472940805539e-02 0.0000000000000000e+00  6.9069442324990771e-01 9.9325759137673358e-02 0.0000000000000000e+00  2.5732726473422801e-01 1.8660583005860459e-01 0.0000000000000000e+00  2.4142625445447657e-01 2.0915343150927099e-01 0.0000000000000000e+00  2.8606672749981604e-01 2.3581976265355897e-01 0.0000000000000000e+00  3.5756971042220609e-01 -1.2287328350171513e-01 0.0000000000000000e+00  2.8364017951852455e-01 -1.1190741457734606e-01 0.0000000000000000e+00  1.6218435847803528e-01 1.7060968889139677e-01 0.0000000000000000e+00  1.6789311247654737e-01 1.6089398596136775e-01 0.0000000000000000e+00  1.0181024665809419e+00 3.1378024102049507e-01 0.0000000000000000e+00  3.4741147173589570e-01 2.9153303800868641e-01 0.0000000000000000e+00  2.5413996256833216e-01 -8.3342134338711030e-02 0.0000000000000000e+00  6.0201781635608798e-02 -2.8244947332699680e-02 0.0000000000000000e+00  2.1078872427036183e-01 1.2816720879868379e-01 0.0000000000000000e+00  3.4150658178687482e-01 2.3204155498537685e-01 0.0000000000000000e+00  2.3855203238478231e-01 7.9589937079933230e-03 0.0000000000000000e+00  3.8250872424539212e-01 2.1479528345424309e-01 0.0000000000000000e+00  3.0115539486383952e-01 -1.2486519873166065e-01 0.0000000000000000e+00  9.2503632830403093e-01 1.5886790192564795e-01 0.0000000000000000e+00  4.9911936346985214e-01 4.2277176156607854e-01 0.0000000000000000e+00  3.8832661680530339e-01 3.5113172673846865e-01 0.0000000000000000e+00  2.5269827095391401e-01 5.9944815618461871e-02 0.0000000000000000e+00  4.0080022232802492e-01 7.4813783479558915e-02 0.0000000000000000e+00  7.1378484074904169e-01 1.5796917368452932e-02 0.0000000000000000e+00  6.7764594147067614e-01 4.3508217152127693e-01 0.0000000000000000e+00  1.9872890188930156e-01 1.9487742907122746e-01 0.0000000000000000e+00  2.4416380647749159e-01 -1.0680370953770828e-02 0.0000000000000000e+00  4.5658950169245655e-01 3.7325140832844927e-01 0.0000000000000000e+00  3.0230775977525798e-01 1.5740120166811061e-01 0.0000000000000000e+00  </DataArray> 
</PointData> 
</Piece>
</UnstructuredGrid>
</VTKFile>