<?xml version="1.0"?>
<VTKFile type="UnstructuredGrid"  version="0.1"  >
<UnstructuredGrid>
<Piece  NumberOfPoints="6" NumberOfCells="4">
<Points>
<DataArray  type="Float64"  NumberOfComponents="3"  format="ascii">0.6900337134348714 0.3722271584790542 0  0.6613708051040201 0.3596941872040312 0  0.6839195173849203 0.3081252767754067 0  0.7125824257157716 0.3206582480504296 0  0.6726451612444702 0.333909731989719 0  0.7013080695753215 0.3464427032647419 0  </DataArray>
</Points>
<Cells>
<DataArray  type="UInt32"  Name="connectivity"  format="ascii">0 4 5  0 1 4  2 4 5  2 3 5  </DataArray>
<DataArray  type="UInt32"  Name="offsets"  format="ascii">3 6 9 12 </DataArray>
<DataArray  type="UInt8"  Name="types"  format="ascii">5 5 5 5 </DataArray>
</Cells>
</Piece>
</UnstructuredGrid>
</VTKFile>