<?xml version="1.0"?>
<VTKFile type="UnstructuredGrid"  version="0.1"  >
<UnstructuredGrid>
<Piece  NumberOfPoints="6" NumberOfCells="4">
<Points>
<DataArray  type="Float64"  NumberOfComponents="3"  format="ascii">0.2917561069402101 0.5701285987572356 0  0.294994827102331 0.5390135160050589 0  0.3509755704695057 0.5448404637807674 0  0.3477368503073848 0.5759555465329442 0  0.3229851987859184 0.5419269898929132 0  0.3197464786237975 0.5730420726450899 0  </DataArray>
</Points>
<Cells>
<DataArray  type="UInt32"  Name="connectivity"  format="ascii">0 4 5  0 1 4  2 4 5  2 3 5  </DataArray>
<DataArray  type="UInt32"  Name="offsets"  format="ascii">3 6 9 12 </DataArray>
<DataArray  type="UInt8"  Name="types"  format="ascii">5 5 5 5 </DataArray>
</Cells>
</Piece>
</UnstructuredGrid>
</VTKFile>