<?xml version="1.0"?>
<VTKFile type="UnstructuredGrid"  version="0.1"  >
<UnstructuredGrid>
<Piece  NumberOfPoints="6" NumberOfCells="4">
<Points>
<DataArray  type="Float64"  NumberOfComponents="3"  format="ascii">0.4289603125864304 0.4485245121857158 0  0.3977991148482018 0.4457645414463139 0  0.402764719950202 0.3897008302393906 0  0.4339259176884305 0.3924608009787924 0  0.4002819173992019 0.4177326858428523 0  0.4314431151374304 0.4204926565822541 0  </DataArray>
</Points>
<Cells>
<DataArray  type="UInt32"  Name="connectivity"  format="ascii">0 4 5  0 1 4  2 4 5  2 3 5  </DataArray>
<DataArray  type="UInt32"  Name="offsets"  format="ascii">3 6 9 12 </DataArray>
<DataArray  type="UInt8"  Name="types"  format="ascii">5 5 5 5 </DataArray>
</Cells>
</Piece>
</UnstructuredGrid>
</VTKFile>