<?xml version="1.0"?>
<VTKFile type="UnstructuredGrid"  version="0.1"  >
<UnstructuredGrid>
<Piece  NumberOfPoints="6" NumberOfCells="4">
<Points>
<DataArray  type="Float64"  NumberOfComponents="3"  format="ascii">0.6668630274635534 0.2248089022755749 0  0.6806535231447109 0.2528884306161883 0  0.6301342016173652 0.2776996196392677 0  0.6163437059362077 0.2496200912986543 0  0.6553938623810381 0.265294025127728 0  0.6416033666998805 0.2372144967871146 0  </DataArray>
</Points>
<Cells>
<DataArray  type="UInt32"  Name="connectivity"  format="ascii">0 4 5  0 1 4  2 4 5  2 3 5  </DataArray>
<DataArray  type="UInt32"  Name="offsets"  format="ascii">3 6 9 12 </DataArray>
<DataArray  type="UInt8"  Name="types"  format="ascii">5 5 5 5 </DataArray>
</Cells>
</Piece>
</UnstructuredGrid>
</VTKFile>